
 Primary working directories    : /tmp/jb37974
 Secondary working directories  : /tmp/jb37974
 Wavefunction directory         : /home/stem/jb37974/wfu/
 Main file repository           : /tmp/jb37974/

 ARCHNAME  : Linux/x86_64
 FC        : /csoft/intel-12/composer_xe_2011_sp1.6.233/bin/intel64/ifort
 FCVERSION : 12.1.0
 BLASLIB   : -L/csoft/intel-12/composer_xe_2011_sp1.6.233/mkl/lib/intel64 -lmkl_intel_ilp64 -lmkl_sequential -lmkl_core
 id        : open

 Nodes           nprocs
 toren.open.ac.uk    1

 Using customized tuning parameters: mindgm=16; mindgv=20; mindgc=6; mindgr=1; noblas=0; mincuda=1000; minvec=7
 default implementation of scratch files=df  

 sis=vdz;
 geometry={angstrom;h1;h2,h1,.74}
 set,charge=1
 hf
 orbprint,100
 put,molden,h2+.molden
 

 Variables initialized (661), CPU time= 0.01 sec
 Commands  initialized (460), CPU time= 0.01 sec, 486 directives.
 Default parameters read. Elapsed time= 0.09 sec

 Checking input...
 Passed
1


                                         ***  PROGRAM SYSTEM MOLPRO  ***
                         Copyright, University College Cardiff Consultants Limited, 2008

                                    Version 2010.1 linked 27 Mar 2014 11:17:02


 **********************************************************************************************************************************
 LABEL *                                                                                 
 Linux-2.6.32-642.15.1.el6.x86_64/toren.open.ac.uk(x86_64) 64 bit serial version         DATE: 27-Apr-18          TIME: 15:15:15  
 **********************************************************************************************************************************

 SHA1:             fd122acbd35ef3619fab5330ac0556b6c1fa4be2
 **********************************************************************************************************************************
 VARIABLE VDZ UNDEFINED, ASSUMING 0
 SETTING SIS            =         0.00000000                                  
 SETTING CHARGE         =         1.00000000                                  

 Variable memory set to    8000000 words,  buffer space   230000 words



 Recomputing integrals since basis changed


 Using spherical harmonics

 Library entry H      S cc-pVDZ              selected for orbital group  1
 Library entry H      P cc-pVDZ              selected for orbital group  1

1PROGRAM * SEWARD (Integral evaluation for generally contracted gaussian basis sets)     Author: Roland Lindh, 1990

 Geometry written to block  1 of record 700

 Orientation using atomic masses  
 Molecule type: Linear
 Symmetry elements: X,Y,Z
 Rotational constants:    1831.2560048   1831.2560048      0.0000000 GHz  (calculated with average atomic masses)

 Point group  D2h 



 ATOMIC COORDINATES

 NR  ATOM    CHARGE       X              Y              Z

   1  H1      1.00    0.000000000    0.000000000   -0.699198669
   2  H2      1.00    0.000000000    0.000000000    0.699198669

 Bond lengths in Bohr (Angstrom)

 1-2  1.398397337
     ( 0.740000000)

 NUCLEAR CHARGE:                    2
 NUMBER OF PRIMITIVE AOS:          14
 NUMBER OF SYMMETRY AOS:           14
 NUMBER OF CONTRACTIONS:           10   (   3Ag  +   1B3u +   1B2u +   0B1g +   3B1u +   1B2g +   1B3g +   0Au  )
 NUMBER OF CORE ORBITALS:           0   (   0Ag  +   0B3u +   0B2u +   0B1g +   0B1u +   0B2g +   0B3g +   0Au  )
 NUMBER OF VALENCE ORBITALS:        2   (   1Ag  +   0B3u +   0B2u +   0B1g +   1B1u +   0B2g +   0B3g +   0Au  )


 NUCLEAR REPULSION ENERGY    0.71510434


 Eigenvalues of metric

         1 0.110E+00 0.117E+01 0.357E+01
         2 0.149E+01
         3 0.149E+01
         5 0.145E-01 0.903E-01 0.105E+01
         6 0.509E+00
         7 0.509E+00


 Contracted 2-electron integrals neglected if value below      1.0D-11
 AO integral compression algorithm  1   Integral accuracy      1.0D-11

     0.262 MB (compressed) written to integral file (100.0%)


 NUMBER OF SORTED TWO-ELECTRON INTEGRALS:        373.     BUFFER LENGTH:  32768
 NUMBER OF SEGMENTS:   1  SEGMENT LENGTH:        373      RECORD LENGTH: 524288

 Memory used in sort:       0.56 MW

 SORT1 READ         776. AND WROTE         373. INTEGRALS IN      1 RECORDS. CPU TIME:     0.00 SEC, REAL TIME:     0.00 SEC
 SORT2 READ         373. AND WROTE         373. INTEGRALS IN      1 RECORDS. CPU TIME:     0.00 SEC, REAL TIME:     0.00 SEC

 FILE SIZES:   FILE 1:     2.8 MBYTE,  FILE 4:     4.2 MBYTE,   TOTAL:      7.0 MBYTE

 OPERATOR DM      FOR CENTER  0  COORDINATES:    0.000000    0.000000    0.000000


 **********************************************************************************************************************************
 DATASETS  * FILE   NREC   LENGTH (MB)   RECORD NAMES
              1      19        2.54       500      610      700      900      950      970     1000      129      960     1100   
                                          VAR    BASINP    GEOM    SYMINP    ZMAT    AOBASIS   BASIS     P2S    ABASIS      S 
                                         1400     1410     1200     1210     1080     1600     1650     1300     1700   
                                           T        V       H0       H01     AOSYM     SMH    MOLCAS    ERIS     OPER   

 PROGRAMS   *        TOTAL       INT
 CPU TIMES  *         0.12      0.01
 REAL TIME  *         0.29 SEC
 DISK USED  *         7.47 MB      
 **********************************************************************************************************************************

1PROGRAM * RHF-SCF (OPEN SHELL)       Authors: W. Meyer, H.-J. Werner


 NUMBER OF ELECTRONS:       1+    0-
 CONVERGENCE THRESHOLDS:    1.00E-05 (Density)    1.00E-07 (Energy)
 MAX. NUMBER OF ITERATIONS:       60
 INTERPOLATION TYPE:            DIIS
 INTERPOLATION STEPS:              2 (START)      1 (STEP)
 LEVEL SHIFTS:                 -0.30 (CLOSED)  0.00 (OPEN) 



 Orbital guess generated from atomic densities. Full valence occupancy:    1   0   0   0   1   0   0   0


 Molecular orbital dump at record        2100.2

 Initial alpha occupancy:   1   0   0   0   0   0   0
 Initial beta  occupancy:   0   0   0   0   0   0   0
 Wave function symmetry:    1

 ITERATION    DDIFF          GRAD             ENERGY        2-EL.EN.            DIPOLE MOMENTS         DIIS
    1      0.000D+00      0.000D+00        -0.52639930      0.000000    0.00000    0.00000    0.00000    0
    2      0.000D+00      0.479D-01        -0.56209355      0.000000    0.00000    0.00000    0.00000    1
    3      0.138D+00      0.139D-01        -0.56520106      0.000000    0.00000    0.00000    0.00000    2
    4      0.603D-01      0.135D-03        -0.56520120      0.000000    0.00000    0.00000    0.00000    3
    5      0.335D-03      0.695D-05        -0.56520120      0.000000    0.00000    0.00000    0.00000    4
    6      0.254D-04      0.832D-10        -0.56520120      0.000000    0.00000    0.00000    0.00000    3
    7      0.316D-09      0.344D-14        -0.56520120      0.000000    0.00000    0.00000    0.00000    0

 Final alpha occupancy:   1   0   0   0   0   0   0
 Final beta  occupancy:   0   0   0   0   0   0   0

 !RHF STATE 1.1 Energy                 -0.565201201548
 Nuclear energy                         0.71510434
 One-electron energy                   -1.28030554
 Two-electron energy                    0.00000000
 Virial quotient                       -0.76482290
 !RHF STATE 1.1 Dipole moment           0.00000000     0.00000000     0.00000000
 Dipole moment /Debye                   0.00000000     0.00000000     0.00000000

 ELECTRON ORBITALS
 =================


   Orb  Occ    Energy  Couls-En    Coefficients

                                   1 1s      1 1s      1 2pz  

   1.1   +    -1.2803   -2.5606  1.206367 -0.525921  0.068155

   2.1   0     0.0505   -0.2699 -1.448187  1.765881 -0.053596

   3.1   0     1.3677    2.1602 -1.170657  0.941146  1.024949

                                   1 2px  

   1.2   0     0.6809    0.7980  0.818892

                                   1 2py  

   1.3   0     0.6809    0.7980  0.818892

                                   1 1s      1 1s      1 2pz  

   1.5   0    -0.1953   -0.7815  0.830231  1.794815 -0.069475

   2.5   0     0.4030    0.3585 -1.951654  3.806391  0.462159

   3.5   0     2.9838    5.3303  6.385543 -3.050227  2.886868

                                   1 2px  

   1.6   0     1.4788    2.3825  1.401981

                                   1 2py  

   1.7   0     1.4788    2.3825  1.401981


 **********************************************************************************************************************************
 DATASETS  * FILE   NREC   LENGTH (MB)   RECORD NAMES
              1      19        2.54       500      610      700      900      950      970     1000      129      960     1100   
                                          VAR    BASINP    GEOM    SYMINP    ZMAT    AOBASIS   BASIS     P2S    ABASIS      S 
                                         1400     1410     1200     1210     1080     1600     1650     1300     1700   
                                           T        V       H0       H01     AOSYM     SMH    MOLCAS    ERIS     OPER   

              2       3        0.26       700     1000     2100   
                                         GEOM     BASIS     RHF  

 PROGRAMS   *        TOTAL        HF       INT
 CPU TIMES  *         0.14      0.02      0.01
 REAL TIME  *         0.38 SEC
 DISK USED  *         7.47 MB      
 **********************************************************************************************************************************

 Dump information in style MOLDEN to h2+.molden                                                                      

 Molecular orbitals read from record     2100.2  Type=RHF/CANONICAL (state 1.1)
 Occupation numbers read from record     2100.2  Type=RHF/RHF (state 1.1)
 Orbital energies read from record       2100.2  Type=RHF/CANONICAL (state 1.1)
 Redundancy group numbers read from rec  2100.2  Type=RHF/RHF (state 1.1)
 
 DUMP ORBITAL  1.1 AS ORBITAL    1  occ=    1.0000  eig=   -1.2803  GROUP=   1

 Total charge:       1.000000

 **********************************************************************************************************************************

        HF-SCF  
     -0.56520120
 **********************************************************************************************************************************
 Variable memory released
