&input
  megul = 723, ! input from module CONGEN
  ukrmolp_ints = .true., ! commented out if you do not run UKRmol+ suite
&end
&cinorn
  name = 'H₂O⁺ CI calculation - doublet A2',
  nstat = 2, ! number of CI eigenvalues
  nciset = 4, ! index of calculated CI vectors within output file (0 = automatic indexing, but first must be 1)
  igh = 1,
&end
