&input
  megul = 720, ! input from module CONGEN
  nfte  = 820, ! Hamiltonian scrach file
  ukrmolp_ints = .true., ! commented out if you do not run UKRmol+ suite
/
&cinorn
  name   = 'H₂O⁺ CI calculation - doublet A1',
  nstat  = 1,  ! number of CI eigenvalues
  nftw   = 26, ! eigenvector output unit
  nciset = 1,  ! index of calculated CI vectors within output file (0 = automatic indexing, but first must be 1)
/
