+-------------------------------------------------------------------------+
|              _              |                                           |
| || || ||//  | \          |  | University College London (C) 1994 - 2019 |
| || || ||    | / |/\/\ /\ |  | Open University           (C) 2007 - 2019 |
| \\_// ||\\  | \ | | | \/ |  |                                           |
|                             |                                           |
+-------------------------------------------------------------------------+
| Last revision: 2.0.2                                                    |
| Last author:   Jimena Gorfinkiel                                        |
| Last date:     Tue Mar 12 13:22:01 2019 +0000                           |
+-------------------------------------------------------------------------+
1

 PROGRAM CONGEN :

                         DATE = 20190412

                         TIME = 110359.483




Using   8-byte integers
  and   8-byte reals

 NBMX =  2000000 WORDS
 ***** REGION USED FOR INPUT DATA    4501 WORDS     4 K
 ***** LEFT   1995500  WORDS
1CONGEN 1.0  IBM SAN JOSE      e + H2O2 - singlet B                                                                          PAGE 001

 NELECT  18   CONFPF  1   MULT   1   CDIMX   400   ICDI      1
 NTSO   696   SYMTYP  2   MVAL   1   NIDMX  4000   INDI    401
 NREFO    2               REFLC  0   NODIMX  100   INODI  4401
 NSYM     2               GUTOT  0   NCORE   2000000
                          ISZ    1   NAV     1995500


              DATA FOR SPEEDY INPUT

             IDIAG    1   MEGU  14   THRES   1.0000E-10
             LCDT   500   MEGUL 71
             LNDT  5000   NFTO  15
             NRERUN   0   LTRI 300

             NPFLG =  0  0  0  0  0  0  NNDEL =      0
             BYPROJ 1   LNDO  10000000   LCDO       500
 
 
 NSYM    1    2
 NOB   182  166
 NSOI    1  365
 
 REFERENCE DETERMINANT INPUT DATA
         1   2
 MSHL    0   1
 PQN     1   1
 NES     9   9
 SO1     0   1
 SO2     0   0
 
 
 REFDET =  1,  2,  3,  4,  5,  6,  7,  8,  9,365,366,367,368,369,370,371,372,374,
 lsquare =                     0

 Target state number  1
 TARGET MULTIPLICITY =    2     TARGET SYMMETRY =    0     TARGET INVERSION SYMMETRY =    0
 Coupling to continuum with M =  1
1CONGEN 1.0  IBM SAN JOSE      e + H2O2 - singlet B                                                                          PAGE 002

 WFN GROUP   1    doublet A x continuum^1                                                         
 NELECG  18   DEFLTC  0   IRFCON  4501
 NDPROD   3   NTCON   0   NAV     1995500
 NREFOG   2

           1  2  3
 NELECP =  4 13  1
 NSHLP  =  2  2  1
     TARGET MULTIPLICITY =    2     TARGET SYMMETRY =    0     TARGET INVERSION SYMMETRY =    0
 
   2 ORBITALS IN GROUP 1
            1           2
 MSHL       0           1
 PQN   ( 0, 1, 1)  ( 0, 1, 1)
 
   2 ORBITALS IN GROUP 2
            1           2
 MSHL       0           1
 PQN   ( 0, 2, 5)  ( 0, 2, 4)
 
   1 ORBITALS IN GROUP 3
            1
 MSHL       1
 PQN   ( 0, 5, 6)
 
 
 COUPLING DATA
            6           7           8           9
 CUP   ( 1, 2, 6)  ( 3, 4, 7)  ( 6, 7, 8)  ( 8, 5, 9)
 
 REFERENCE DETERMINANT INPUT DATA
         1   2
 MSHL    0   1
 PQN     1   1
 NES     9   9
 SO1     0   1
 SO2     0   0
 
 
 REFDET =  1,  2,  3,  4,  5,  6,  7,  8,  9,365,366,367,368,369,370,371,372,374,
 
1CONGEN 1.0  IBM SAN JOSE      e + H2O2 - singlet B                                                                          PAGE 003

 NTYP=  1   SHELL NO       1           2           3           4           5           6           7           8           9
            OCCSHL         2           2           2           2           2           1           2           2           2
            SYM            0           1           0           0           0           0           1           1           1
            PQN      (  0, 1, 1) (  0, 1, 1) (  0, 2, 5) (  0, 2, 5) (  0, 2, 5) (  0, 2, 5) (  0, 2, 4) (  0, 2, 4) (  0, 2, 4)
            QNSHL          1           1           1           1           1           2           1           1           1
 
            SHELL NO      10
            OCCSHL         1
            SYM            1
            PQN      (  0, 5, 6)
            QNSHL          2
 
 *******************     TOTAL NUMBER OF DISTRIBUTIONS FOR NTYP =  1 IS    8
 *******************     TOTAL NUMBER OF STATES FOR NTYP=  1 IS   1
                    CSF NUMBERS         1 TO         8 (        8 CSFS) GENERATED
 ********************************************************************************************************************************
 ********************************************************************************************************************************
 lsquare =                     0

 Target state number  2
 TARGET MULTIPLICITY =    2     TARGET SYMMETRY =    1     TARGET INVERSION SYMMETRY =    0
 Coupling to continuum with M =  0
1CONGEN 1.0  IBM SAN JOSE      e + H2O2 - singlet B                                                                          PAGE 004

 WFN GROUP   2    doublet B x continuum^1                                                         
 NELECG  18   DEFLTC  0   IRFCON  4501
 NDPROD   3   NTCON   0   NAV     1995500
 NREFOG   2

           1  2  3
 NELECP =  4 13  1
 NSHLP  =  2  2  1
     TARGET MULTIPLICITY =    2     TARGET SYMMETRY =    1     TARGET INVERSION SYMMETRY =    0
 
   2 ORBITALS IN GROUP 1
            1           2
 MSHL       0           1
 PQN   ( 0, 1, 1)  ( 0, 1, 1)
 
   2 ORBITALS IN GROUP 2
            1           2
 MSHL       0           1
 PQN   ( 0, 2, 5)  ( 0, 2, 4)
 
   1 ORBITALS IN GROUP 3
            1
 MSHL       0
 PQN   ( 0, 6, 7)
 
 
 COUPLING DATA
            6           7           8           9
 CUP   ( 1, 2, 6)  ( 3, 4, 7)  ( 6, 7, 8)  ( 8, 5, 9)
 
 REFERENCE DETERMINANT INPUT DATA
         1   2
 MSHL    0   1
 PQN     1   1
 NES     9   9
 SO1     0   1
 SO2     0   0
 
 
 REFDET =  1,  2,  3,  4,  5,  6,  7,  8,  9,365,366,367,368,369,370,371,372,374,
 
1CONGEN 1.0  IBM SAN JOSE      e + H2O2 - singlet B                                                                          PAGE 005

 NTYP=  1   SHELL NO       1           2           3           4           5           6           7           8           9
            OCCSHL         2           2           2           2           2           2           2           2           1
            SYM            0           1           0           0           0           0           1           1           1
            PQN      (  0, 1, 1) (  0, 1, 1) (  0, 2, 5) (  0, 2, 5) (  0, 2, 5) (  0, 2, 5) (  0, 2, 4) (  0, 2, 4) (  0, 2, 4)
            QNSHL          1           1           1           1           1           1           1           1           2
 
            SHELL NO      10
            OCCSHL         1
            SYM            0
            PQN      (  0, 6, 7)
            QNSHL          2
 
 *******************     TOTAL NUMBER OF DISTRIBUTIONS FOR NTYP =  1 IS    6
 *******************     TOTAL NUMBER OF STATES FOR NTYP=  1 IS   1
                    CSF NUMBERS         9 TO        14 (        6 CSFS) GENERATED
 ********************************************************************************************************************************
 ********************************************************************************************************************************
 lsquare =                     0
1CONGEN 1.0  IBM SAN JOSE      e + H2O2 - singlet B                                                                          PAGE 006

 WFN GROUP   3    core^Nc cas^N-Nc+1                                                              
 NELECG  18   DEFLTC  0   IRFCON  4501
 NDPROD   2   NTCON   0   NAV     1995500
 NREFOG   2

           1  2
 NELECP =  4 14
 NSHLP  =  2  2
 
   2 ORBITALS IN GROUP 1
            1           2
 MSHL       0           1
 PQN   ( 0, 1, 1)  ( 0, 1, 1)
 
   2 ORBITALS IN GROUP 2
            1           2
 MSHL       0           1
 PQN   ( 0, 2, 5)  ( 0, 2, 4)
 
 
 COUPLING DATA
            5           6           7
 CUP   ( 1, 2, 5)  ( 3, 4, 6)  ( 5, 6, 7)
 
 REFERENCE DETERMINANT INPUT DATA
         1   2
 MSHL    0   1
 PQN     1   1
 NES     9   9
 SO1     0   1
 SO2     0   0
 
 
 REFDET =  1,  2,  3,  4,  5,  6,  7,  8,  9,365,366,367,368,369,370,371,372,374,
 
 
 
 *****  END OF FILE ON INPUT
 
 
 ********** TOTAL NUMBER OF CSF'S GENERATED IS        14
1CONGEN 1.0  IBM SAN JOSE      e + H2O2 - singlet B                                                                          PAGE 007

 MOLECULE SYMMETRY CASE,  symtyp = 2
                   I         N         G         M         S      MPOS      
                   1         1         0         0         0         0
                   2         1         0         0         1         0
                   3         2         0         0         0         0
                   4         2         0         0         1         0
                   5         3         0         0         0         0
                   6         3         0         0         1         0
                   7         4         0         0         0         0
                   8         4         0         0         1         0
                   9         5         0         0         0         0
                  10         5         0         0         1         0
                  11         6         0         0         0         0
                  12         6         0         0         1         0
                  13         7         0         0         0         0
                  14         7         0         0         1         0
                  15         8         0         0         0         0
                  16         8         0         0         1         0
                  17         9         0         0         0         0
                  18         9         0         0         1         0
                  19        10         0         0         0         0
                  20        10         0         0         1         0
                  21        11         0         0         0         0
                  22        11         0         0         1         0
                  23        12         0         0         0         0
                  24        12         0         0         1         0
                  25        13         0         0         0         0
                  26        13         0         0         1         0
                  27        14         0         0         0         0
                  28        14         0         0         1         0
                  29        15         0         0         0         0
                  30        15         0         0         1         0
                  31        16         0         0         0         0
                  32        16         0         0         1         0
                  33        17         0         0         0         0
                  34        17         0         0         1         0
                  35        18         0         0         0         0
                  36        18         0         0         1         0
                  37        19         0         0         0         0
                  38        19         0         0         1         0
                  39        20         0         0         0         0
                  40        20         0         0         1         0
                  41        21         0         0         0         0
                  42        21         0         0         1         0
                  43        22         0         0         0         0
                  44        22         0         0         1         0
                  45        23         0         0         0         0
                  46        23         0         0         1         0
                  47        24         0         0         0         0
                  48        24         0         0         1         0
                  49        25         0         0         0         0
                  50        25         0         0         1         0
                  51        26         0         0         0         0
                  52        26         0         0         1         0
                  53        27         0         0         0         0
                  54        27         0         0         1         0
                  55        28         0         0         0         0
                  56        28         0         0         1         0
                  57        29         0         0         0         0
                  58        29         0         0         1         0
                  59        30         0         0         0         0
                  60        30         0         0         1         0
                  61        31         0         0         0         0
                  62        31         0         0         1         0
                  63        32         0         0         0         0
                  64        32         0         0         1         0
                  65        33         0         0         0         0
                  66        33         0         0         1         0
                  67        34         0         0         0         0
                  68        34         0         0         1         0
                  69        35         0         0         0         0
                  70        35         0         0         1         0
                  71        36         0         0         0         0
                  72        36         0         0         1         0
                  73        37         0         0         0         0
                  74        37         0         0         1         0
                  75        38         0         0         0         0
                  76        38         0         0         1         0
                  77        39         0         0         0         0
                  78        39         0         0         1         0
                  79        40         0         0         0         0
                  80        40         0         0         1         0
                  81        41         0         0         0         0
                  82        41         0         0         1         0
                  83        42         0         0         0         0
                  84        42         0         0         1         0
                  85        43         0         0         0         0
                  86        43         0         0         1         0
                  87        44         0         0         0         0
                  88        44         0         0         1         0
                  89        45         0         0         0         0
                  90        45         0         0         1         0
                  91        46         0         0         0         0
                  92        46         0         0         1         0
                  93        47         0         0         0         0
                  94        47         0         0         1         0
                  95        48         0         0         0         0
                  96        48         0         0         1         0
                  97        49         0         0         0         0
                  98        49         0         0         1         0
                  99        50         0         0         0         0
                 100        50         0         0         1         0
                 101        51         0         0         0         0
                 102        51         0         0         1         0
                 103        52         0         0         0         0
                 104        52         0         0         1         0
                 105        53         0         0         0         0
                 106        53         0         0         1         0
                 107        54         0         0         0         0
                 108        54         0         0         1         0
                 109        55         0         0         0         0
                 110        55         0         0         1         0
                 111        56         0         0         0         0
                 112        56         0         0         1         0
                 113        57         0         0         0         0
                 114        57         0         0         1         0
                 115        58         0         0         0         0
                 116        58         0         0         1         0
                 117        59         0         0         0         0
                 118        59         0         0         1         0
                 119        60         0         0         0         0
                 120        60         0         0         1         0
                 121        61         0         0         0         0
                 122        61         0         0         1         0
                 123        62         0         0         0         0
                 124        62         0         0         1         0
                 125        63         0         0         0         0
                 126        63         0         0         1         0
                 127        64         0         0         0         0
                 128        64         0         0         1         0
                 129        65         0         0         0         0
                 130        65         0         0         1         0
                 131        66         0         0         0         0
                 132        66         0         0         1         0
                 133        67         0         0         0         0
                 134        67         0         0         1         0
                 135        68         0         0         0         0
                 136        68         0         0         1         0
                 137        69         0         0         0         0
                 138        69         0         0         1         0
                 139        70         0         0         0         0
                 140        70         0         0         1         0
                 141        71         0         0         0         0
                 142        71         0         0         1         0
                 143        72         0         0         0         0
                 144        72         0         0         1         0
                 145        73         0         0         0         0
                 146        73         0         0         1         0
                 147        74         0         0         0         0
                 148        74         0         0         1         0
                 149        75         0         0         0         0
                 150        75         0         0         1         0
                 151        76         0         0         0         0
                 152        76         0         0         1         0
                 153        77         0         0         0         0
                 154        77         0         0         1         0
                 155        78         0         0         0         0
                 156        78         0         0         1         0
                 157        79         0         0         0         0
                 158        79         0         0         1         0
                 159        80         0         0         0         0
                 160        80         0         0         1         0
                 161        81         0         0         0         0
                 162        81         0         0         1         0
                 163        82         0         0         0         0
                 164        82         0         0         1         0
                 165        83         0         0         0         0
                 166        83         0         0         1         0
                 167        84         0         0         0         0
                 168        84         0         0         1         0
                 169        85         0         0         0         0
                 170        85         0         0         1         0
                 171        86         0         0         0         0
                 172        86         0         0         1         0
                 173        87         0         0         0         0
                 174        87         0         0         1         0
                 175        88         0         0         0         0
                 176        88         0         0         1         0
                 177        89         0         0         0         0
                 178        89         0         0         1         0
                 179        90         0         0         0         0
                 180        90         0         0         1         0
                 181        91         0         0         0         0
                 182        91         0         0         1         0
                 183        92         0         0         0         0
                 184        92         0         0         1         0
                 185        93         0         0         0         0
                 186        93         0         0         1         0
                 187        94         0         0         0         0
                 188        94         0         0         1         0
                 189        95         0         0         0         0
                 190        95         0         0         1         0
                 191        96         0         0         0         0
                 192        96         0         0         1         0
                 193        97         0         0         0         0
                 194        97         0         0         1         0
                 195        98         0         0         0         0
                 196        98         0         0         1         0
                 197        99         0         0         0         0
                 198        99         0         0         1         0
                 199       100         0         0         0         0
                 200       100         0         0         1         0
                 201       101         0         0         0         0
                 202       101         0         0         1         0
                 203       102         0         0         0         0
                 204       102         0         0         1         0
                 205       103         0         0         0         0
                 206       103         0         0         1         0
                 207       104         0         0         0         0
                 208       104         0         0         1         0
                 209       105         0         0         0         0
                 210       105         0         0         1         0
                 211       106         0         0         0         0
                 212       106         0         0         1         0
                 213       107         0         0         0         0
                 214       107         0         0         1         0
                 215       108         0         0         0         0
                 216       108         0         0         1         0
                 217       109         0         0         0         0
                 218       109         0         0         1         0
                 219       110         0         0         0         0
                 220       110         0         0         1         0
                 221       111         0         0         0         0
                 222       111         0         0         1         0
                 223       112         0         0         0         0
                 224       112         0         0         1         0
                 225       113         0         0         0         0
                 226       113         0         0         1         0
                 227       114         0         0         0         0
                 228       114         0         0         1         0
                 229       115         0         0         0         0
                 230       115         0         0         1         0
                 231       116         0         0         0         0
                 232       116         0         0         1         0
                 233       117         0         0         0         0
                 234       117         0         0         1         0
                 235       118         0         0         0         0
                 236       118         0         0         1         0
                 237       119         0         0         0         0
                 238       119         0         0         1         0
                 239       120         0         0         0         0
                 240       120         0         0         1         0
                 241       121         0         0         0         0
                 242       121         0         0         1         0
                 243       122         0         0         0         0
                 244       122         0         0         1         0
                 245       123         0         0         0         0
                 246       123         0         0         1         0
                 247       124         0         0         0         0
                 248       124         0         0         1         0
                 249       125         0         0         0         0
                 250       125         0         0         1         0
                 251       126         0         0         0         0
                 252       126         0         0         1         0
                 253       127         0         0         0         0
                 254       127         0         0         1         0
                 255       128         0         0         0         0
                 256       128         0         0         1         0
                 257       129         0         0         0         0
                 258       129         0         0         1         0
                 259       130         0         0         0         0
                 260       130         0         0         1         0
                 261       131         0         0         0         0
                 262       131         0         0         1         0
                 263       132         0         0         0         0
                 264       132         0         0         1         0
                 265       133         0         0         0         0
                 266       133         0         0         1         0
                 267       134         0         0         0         0
                 268       134         0         0         1         0
                 269       135         0         0         0         0
                 270       135         0         0         1         0
                 271       136         0         0         0         0
                 272       136         0         0         1         0
                 273       137         0         0         0         0
                 274       137         0         0         1         0
                 275       138         0         0         0         0
                 276       138         0         0         1         0
                 277       139         0         0         0         0
                 278       139         0         0         1         0
                 279       140         0         0         0         0
                 280       140         0         0         1         0
                 281       141         0         0         0         0
                 282       141         0         0         1         0
                 283       142         0         0         0         0
                 284       142         0         0         1         0
                 285       143         0         0         0         0
                 286       143         0         0         1         0
                 287       144         0         0         0         0
                 288       144         0         0         1         0
                 289       145         0         0         0         0
                 290       145         0         0         1         0
                 291       146         0         0         0         0
                 292       146         0         0         1         0
                 293       147         0         0         0         0
                 294       147         0         0         1         0
                 295       148         0         0         0         0
                 296       148         0         0         1         0
                 297       149         0         0         0         0
                 298       149         0         0         1         0
                 299       150         0         0         0         0
                 300       150         0         0         1         0
                 301       151         0         0         0         0
                 302       151         0         0         1         0
                 303       152         0         0         0         0
                 304       152         0         0         1         0
                 305       153         0         0         0         0
                 306       153         0         0         1         0
                 307       154         0         0         0         0
                 308       154         0         0         1         0
                 309       155         0         0         0         0
                 310       155         0         0         1         0
                 311       156         0         0         0         0
                 312       156         0         0         1         0
                 313       157         0         0         0         0
                 314       157         0         0         1         0
                 315       158         0         0         0         0
                 316       158         0         0         1         0
                 317       159         0         0         0         0
                 318       159         0         0         1         0
                 319       160         0         0         0         0
                 320       160         0         0         1         0
                 321       161         0         0         0         0
                 322       161         0         0         1         0
                 323       162         0         0         0         0
                 324       162         0         0         1         0
                 325       163         0         0         0         0
                 326       163         0         0         1         0
                 327       164         0         0         0         0
                 328       164         0         0         1         0
                 329       165         0         0         0         0
                 330       165         0         0         1         0
                 331       166         0         0         0         0
                 332       166         0         0         1         0
                 333       167         0         0         0         0
                 334       167         0         0         1         0
                 335       168         0         0         0         0
                 336       168         0         0         1         0
                 337       169         0         0         0         0
                 338       169         0         0         1         0
                 339       170         0         0         0         0
                 340       170         0         0         1         0
                 341       171         0         0         0         0
                 342       171         0         0         1         0
                 343       172         0         0         0         0
                 344       172         0         0         1         0
                 345       173         0         0         0         0
                 346       173         0         0         1         0
                 347       174         0         0         0         0
                 348       174         0         0         1         0
                 349       175         0         0         0         0
                 350       175         0         0         1         0
                 351       176         0         0         0         0
                 352       176         0         0         1         0
                 353       177         0         0         0         0
                 354       177         0         0         1         0
                 355       178         0         0         0         0
                 356       178         0         0         1         0
                 357       179         0         0         0         0
                 358       179         0         0         1         0
                 359       180         0         0         0         0
                 360       180         0         0         1         0
                 361       181         0         0         0         0
                 362       181         0         0         1         0
                 363       182         0         0         0         0
                 364       182         0         0         1         0
                 365       183         0         1         0         0
                 366       183         0         1         1         0
                 367       184         0         1         0         0
                 368       184         0         1         1         0
                 369       185         0         1         0         0
                 370       185         0         1         1         0
                 371       186         0         1         0         0
                 372       186         0         1         1         0
                 373       187         0         1         0         0
                 374       187         0         1         1         0
                 375       188         0         1         0         0
                 376       188         0         1         1         0
                 377       189         0         1         0         0
                 378       189         0         1         1         0
                 379       190         0         1         0         0
                 380       190         0         1         1         0
                 381       191         0         1         0         0
                 382       191         0         1         1         0
                 383       192         0         1         0         0
                 384       192         0         1         1         0
                 385       193         0         1         0         0
                 386       193         0         1         1         0
                 387       194         0         1         0         0
                 388       194         0         1         1         0
                 389       195         0         1         0         0
                 390       195         0         1         1         0
                 391       196         0         1         0         0
                 392       196         0         1         1         0
                 393       197         0         1         0         0
                 394       197         0         1         1         0
                 395       198         0         1         0         0
                 396       198         0         1         1         0
                 397       199         0         1         0         0
                 398       199         0         1         1         0
                 399       200         0         1         0         0
                 400       200         0         1         1         0
                 401       201         0         1         0         0
                 402       201         0         1         1         0
                 403       202         0         1         0         0
                 404       202         0         1         1         0
                 405       203         0         1         0         0
                 406       203         0         1         1         0
                 407       204         0         1         0         0
                 408       204         0         1         1         0
                 409       205         0         1         0         0
                 410       205         0         1         1         0
                 411       206         0         1         0         0
                 412       206         0         1         1         0
                 413       207         0         1         0         0
                 414       207         0         1         1         0
                 415       208         0         1         0         0
                 416       208         0         1         1         0
                 417       209         0         1         0         0
                 418       209         0         1         1         0
                 419       210         0         1         0         0
                 420       210         0         1         1         0
                 421       211         0         1         0         0
                 422       211         0         1         1         0
                 423       212         0         1         0         0
                 424       212         0         1         1         0
                 425       213         0         1         0         0
                 426       213         0         1         1         0
                 427       214         0         1         0         0
                 428       214         0         1         1         0
                 429       215         0         1         0         0
                 430       215         0         1         1         0
                 431       216         0         1         0         0
                 432       216         0         1         1         0
                 433       217         0         1         0         0
                 434       217         0         1         1         0
                 435       218         0         1         0         0
                 436       218         0         1         1         0
                 437       219         0         1         0         0
                 438       219         0         1         1         0
                 439       220         0         1         0         0
                 440       220         0         1         1         0
                 441       221         0         1         0         0
                 442       221         0         1         1         0
                 443       222         0         1         0         0
                 444       222         0         1         1         0
                 445       223         0         1         0         0
                 446       223         0         1         1         0
                 447       224         0         1         0         0
                 448       224         0         1         1         0
                 449       225         0         1         0         0
                 450       225         0         1         1         0
                 451       226         0         1         0         0
                 452       226         0         1         1         0
                 453       227         0         1         0         0
                 454       227         0         1         1         0
                 455       228         0         1         0         0
                 456       228         0         1         1         0
                 457       229         0         1         0         0
                 458       229         0         1         1         0
                 459       230         0         1         0         0
                 460       230         0         1         1         0
                 461       231         0         1         0         0
                 462       231         0         1         1         0
                 463       232         0         1         0         0
                 464       232         0         1         1         0
                 465       233         0         1         0         0
                 466       233         0         1         1         0
                 467       234         0         1         0         0
                 468       234         0         1         1         0
                 469       235         0         1         0         0
                 470       235         0         1         1         0
                 471       236         0         1         0         0
                 472       236         0         1         1         0
                 473       237         0         1         0         0
                 474       237         0         1         1         0
                 475       238         0         1         0         0
                 476       238         0         1         1         0
                 477       239         0         1         0         0
                 478       239         0         1         1         0
                 479       240         0         1         0         0
                 480       240         0         1         1         0
                 481       241         0         1         0         0
                 482       241         0         1         1         0
                 483       242         0         1         0         0
                 484       242         0         1         1         0
                 485       243         0         1         0         0
                 486       243         0         1         1         0
                 487       244         0         1         0         0
                 488       244         0         1         1         0
                 489       245         0         1         0         0
                 490       245         0         1         1         0
                 491       246         0         1         0         0
                 492       246         0         1         1         0
                 493       247         0         1         0         0
                 494       247         0         1         1         0
                 495       248         0         1         0         0
                 496       248         0         1         1         0
                 497       249         0         1         0         0
                 498       249         0         1         1         0
                 499       250         0         1         0         0
                 500       250         0         1         1         0
                 501       251         0         1         0         0
                 502       251         0         1         1         0
                 503       252         0         1         0         0
                 504       252         0         1         1         0
                 505       253         0         1         0         0
                 506       253         0         1         1         0
                 507       254         0         1         0         0
                 508       254         0         1         1         0
                 509       255         0         1         0         0
                 510       255         0         1         1         0
                 511       256         0         1         0         0
                 512       256         0         1         1         0
                 513       257         0         1         0         0
                 514       257         0         1         1         0
                 515       258         0         1         0         0
                 516       258         0         1         1         0
                 517       259         0         1         0         0
                 518       259         0         1         1         0
                 519       260         0         1         0         0
                 520       260         0         1         1         0
                 521       261         0         1         0         0
                 522       261         0         1         1         0
                 523       262         0         1         0         0
                 524       262         0         1         1         0
                 525       263         0         1         0         0
                 526       263         0         1         1         0
                 527       264         0         1         0         0
                 528       264         0         1         1         0
                 529       265         0         1         0         0
                 530       265         0         1         1         0
                 531       266         0         1         0         0
                 532       266         0         1         1         0
                 533       267         0         1         0         0
                 534       267         0         1         1         0
                 535       268         0         1         0         0
                 536       268         0         1         1         0
                 537       269         0         1         0         0
                 538       269         0         1         1         0
                 539       270         0         1         0         0
                 540       270         0         1         1         0
                 541       271         0         1         0         0
                 542       271         0         1         1         0
                 543       272         0         1         0         0
                 544       272         0         1         1         0
                 545       273         0         1         0         0
                 546       273         0         1         1         0
                 547       274         0         1         0         0
                 548       274         0         1         1         0
                 549       275         0         1         0         0
                 550       275         0         1         1         0
                 551       276         0         1         0         0
                 552       276         0         1         1         0
                 553       277         0         1         0         0
                 554       277         0         1         1         0
                 555       278         0         1         0         0
                 556       278         0         1         1         0
                 557       279         0         1         0         0
                 558       279         0         1         1         0
                 559       280         0         1         0         0
                 560       280         0         1         1         0
                 561       281         0         1         0         0
                 562       281         0         1         1         0
                 563       282         0         1         0         0
                 564       282         0         1         1         0
                 565       283         0         1         0         0
                 566       283         0         1         1         0
                 567       284         0         1         0         0
                 568       284         0         1         1         0
                 569       285         0         1         0         0
                 570       285         0         1         1         0
                 571       286         0         1         0         0
                 572       286         0         1         1         0
                 573       287         0         1         0         0
                 574       287         0         1         1         0
                 575       288         0         1         0         0
                 576       288         0         1         1         0
                 577       289         0         1         0         0
                 578       289         0         1         1         0
                 579       290         0         1         0         0
                 580       290         0         1         1         0
                 581       291         0         1         0         0
                 582       291         0         1         1         0
                 583       292         0         1         0         0
                 584       292         0         1         1         0
                 585       293         0         1         0         0
                 586       293         0         1         1         0
                 587       294         0         1         0         0
                 588       294         0         1         1         0
                 589       295         0         1         0         0
                 590       295         0         1         1         0
                 591       296         0         1         0         0
                 592       296         0         1         1         0
                 593       297         0         1         0         0
                 594       297         0         1         1         0
                 595       298         0         1         0         0
                 596       298         0         1         1         0
                 597       299         0         1         0         0
                 598       299         0         1         1         0
                 599       300         0         1         0         0
                 600       300         0         1         1         0
                 601       301         0         1         0         0
                 602       301         0         1         1         0
                 603       302         0         1         0         0
                 604       302         0         1         1         0
                 605       303         0         1         0         0
                 606       303         0         1         1         0
                 607       304         0         1         0         0
                 608       304         0         1         1         0
                 609       305         0         1         0         0
                 610       305         0         1         1         0
                 611       306         0         1         0         0
                 612       306         0         1         1         0
                 613       307         0         1         0         0
                 614       307         0         1         1         0
                 615       308         0         1         0         0
                 616       308         0         1         1         0
                 617       309         0         1         0         0
                 618       309         0         1         1         0
                 619       310         0         1         0         0
                 620       310         0         1         1         0
                 621       311         0         1         0         0
                 622       311         0         1         1         0
                 623       312         0         1         0         0
                 624       312         0         1         1         0
                 625       313         0         1         0         0
                 626       313         0         1         1         0
                 627       314         0         1         0         0
                 628       314         0         1         1         0
                 629       315         0         1         0         0
                 630       315         0         1         1         0
                 631       316         0         1         0         0
                 632       316         0         1         1         0
                 633       317         0         1         0         0
                 634       317         0         1         1         0
                 635       318         0         1         0         0
                 636       318         0         1         1         0
                 637       319         0         1         0         0
                 638       319         0         1         1         0
                 639       320         0         1         0         0
                 640       320         0         1         1         0
                 641       321         0         1         0         0
                 642       321         0         1         1         0
                 643       322         0         1         0         0
                 644       322         0         1         1         0
                 645       323         0         1         0         0
                 646       323         0         1         1         0
                 647       324         0         1         0         0
                 648       324         0         1         1         0
                 649       325         0         1         0         0
                 650       325         0         1         1         0
                 651       326         0         1         0         0
                 652       326         0         1         1         0
                 653       327         0         1         0         0
                 654       327         0         1         1         0
                 655       328         0         1         0         0
                 656       328         0         1         1         0
                 657       329         0         1         0         0
                 658       329         0         1         1         0
                 659       330         0         1         0         0
                 660       330         0         1         1         0
                 661       331         0         1         0         0
                 662       331         0         1         1         0
                 663       332         0         1         0         0
                 664       332         0         1         1         0
                 665       333         0         1         0         0
                 666       333         0         1         1         0
                 667       334         0         1         0         0
                 668       334         0         1         1         0
                 669       335         0         1         0         0
                 670       335         0         1         1         0
                 671       336         0         1         0         0
                 672       336         0         1         1         0
                 673       337         0         1         0         0
                 674       337         0         1         1         0
                 675       338         0         1         0         0
                 676       338         0         1         1         0
                 677       339         0         1         0         0
                 678       339         0         1         1         0
                 679       340         0         1         0         0
                 680       340         0         1         1         0
                 681       341         0         1         0         0
                 682       341         0         1         1         0
                 683       342         0         1         0         0
                 684       342         0         1         1         0
                 685       343         0         1         0         0
                 686       343         0         1         1         0
                 687       344         0         1         0         0
                 688       344         0         1         1         0
                 689       345         0         1         0         0
                 690       345         0         1         1         0
                 691       346         0         1         0         0
                 692       346         0         1         1         0
                 693       347         0         1         0         0
                 694       347         0         1         1         0
                 695       348         0         1         0         0
                 696       348         0         1         1         0

          On output CSF       1 has the largest 
          number of determinants =       2


          At end of wfgntr(), usage of memory in output
          arrays is as follows:                        

            Array     Used     Max avail               
            -----  ---------   ---------               
            ndo()        128       1280
            cdo()         28        280


          **** WFGNTR() - completed 


     Performing phase correction for target
     states in a scattering run


 CI target data for SCATCI:

 Number of target symmetries in expansion,   NTGSYM =    2
 Number of continuum orbs for each state, NOTGT =    2    2
 Number of CI components for each state,      NCTGT =    4    3
 Continuum M projection  for each state,      MCONT =    1    0

     Phase analysis for total wavefunction:

      
       Number of CSFS           (nocsf) =       14
       Number of electrons       (nelt) =       18
       Number of target states (ntgsym) =        2
       Spatial group type      (symtyp) =        2
       Size of packed dets     (lenndo) =      128
       Size of cdo (#dets)     (lencdo) =       28
                               (nctarg) =        7

     Structure of wavefunction:

     Target   #CSFs    #Continuum  Spatial Sym 
     State     targ     functions  continuum   
     ------  -------   ----------  ----------- 
          1        4            2           1
          2        3            2           0

     **** End of structure of wavefunction

     Writing projected CSFs to unit    71 in format
     required by the SCATCI/DENPROP programs 


     Writing final results to disk (wrnfto) 
     -------------------------------------- 
       Logical unit         (nfto)   =       71
       Positrons present    (iposit) =        0
       Number of electrons  (nelt)   =       18
       Number of CSFs       (nocsf)  =       14
       Number of symmetries (nsym)   =        2
       Point group flag     (symtyp) =        2
       Orbitals per symm    (nob)    :  182 166
       Total # of orbitals  (norb)   =      348
       Total # of spin orbs (nsrb)   =      696

       Length of index  arrays - icdo,indo (m)    =       15
       Length of coeff. array  - cdo       (lcdi) =       28
         (equals # dets in wfn)
       Length of packed dets array - ndo   (lndi) =      128

       Spin quantum number  (s)      =     0.00
       Z-projection of spin (sz)     =     0.00
       Reflection quant. #  (r)      =     0.00
       Pin                  (pin)    =     0.00
                            (idiag)  =        1

     Data on CSFs has been written to file (MEGUL) =    71

     ***** Wavefn projection (projec()) - completed

 &INPUT
 NAME='e + H2O2 - singlet B                                                            ',
 NRERUN=  0,  MEGUL= 71,  SYMTYP=  2,
 MGVN=  1,  S=   0.0,SZ=   0.0, R=   0.0,  PIN=   0.0,  NOCSF=    14,
 BYPROJ= 1,
 LCDI=             40,  LNDI=            188, LCDO=    500, LNDO=       10000000, LCDT=    500,  LNDT=   5000,
 NFTO= 15,  LTRI=  300, IDIAG=  1, NPFLG= 0, 0, 0, 0, 0, NPMSPD = 0,
 THRES= 1.00D-10,
 NELT=  18, NSYM=  2, NOB=182,166,
 NDTRF=   1,   2,   3,   4,   5,   6,   7,   8,   9, 365, 366, 367, 
        368, 369, 370, 371, 372, 374,
 NOBL=182,166,  0,  0,  0,  0,  0,  0,  0,  0,
  0,  0,  0,  0,  0,  0,  0,  0,  0,  0,
 NOB0L=  5,  4,  0,  0,  0,  0,  0,  0,  0,  0,
  0,  0,  0,  0,  0,  0,  0,  0,  0,  0,
 &END
