
                                                      $$$$$$$$$$$$$$$$$$$$$$$$$$$$$$$$$$$$$$$$$$$$$$$$$$$$$$$$$$$$$$$$$$     
 $                                                                $
 $                Subversion Revision Information                 $
 $                                                                $
                                         $Id:: swinterf.f 663 2011-06-15 09:42:21Z jimena                 $     
 $                                                                $
                                     $URL:: http://ccpforge.cse.rl.ac.uk/svn/ukrmol-in/trunk/source/s#$     
                                                      $LastChangedBy:: jimena                                          $     
                                                      $LastChangedDate:: 2011-06-15 10:42:21 +0100 (Wed, 15 Jun 2011)  $     
                                                      $LastChangedRevision:: 663                                       $     
 $                                                                $
                                     $$$$$$$$$$$$$$$$$$$$$$$$$$$$$$$$$$$$$$$$$$$$$$$$$$$$$$$$$$$$$$$$$$     



 Program SWINTERF  ( last modified 12-Jan-2004 )

e + H2O2 - singlet A                                        20190409  070958.366


 Symmetry data   MGVN = 0 STOT = 1

 Input datasets:             Unit  Set number
 Target data          LUTARG  24       1       FORMATTED
 Boundary amplitudes  LUAMP   22       1     UNFORMATTED
 CI data              LUCI    25       1     UNFORMATTED
 Buttle corrections   LUBUT    0       1     UNFORMATTED

 Output datasets:            Unit  Set number
 Channel data         LUCHAN  10       1     UNFORMATTED
 R-Matrix data        LURMT   21       1     UNFORMATTED

 We are using UKRmol+ input

 Assuming full CI vectors have been saved on LUCI 

 Target rotational constants (a.u.)   0.496109D-04   0.434829D-05   0.421892D-05

 Nuclear centres 
    Atom  Charge      X         Y         Z         Mass
  1   O      8    -0.000000  1.310903 -0.057709   15.994900
  2   O      8     0.000000 -1.310903 -0.057709   15.994900
  3   H      1     1.436570  1.708123  0.915878    1.007800
  4   H      1    -1.436570 -1.708123  0.915878    1.007800

 Reduced mass     864.081366 au

 Transition moments
    2    0    2    0    1    0  -0.99646
    2    0    2    0    2   -2  -3.87321
    2    0    2    0    2    0   2.51397
    2    0    2    0    2    2   0.71632
    1    1    2    0    1   -1  -0.49387
    1    1    2    0    1    1  -0.00673
    1    1    2    0    2   -1  -0.36625
    1    1    2    0    2    1   0.55606
    1    1    1    1    1    0  -0.79464
    1    1    1    1    2   -2  -4.83834
    1    1    1    1    2    0   1.54659
    1    1    1    1    2    2   0.88386

 READCIP start

 CI file header data:
 --------------------
 MGVN  =  0
 NSET  =  1
 NSTAT =        340
 NOCSF =        340

 READCIP end

 R-matrix radius  =   20.00
 Residual charge on system = 1

 Channel Target  l  m  q       Irr  Energy   Energy(eV)
    1       1    1  1 -1  N/A   2  0.000000  0.000000
    2       1    1  1  1  N/A   2  0.000000  0.000000
    3       1    2  1 -1  N/A   2  0.000000  0.000000
    4       1    2  1  1  N/A   2  0.000000  0.000000
    5       1    3  3 -1  N/A   2  0.000000  0.000000
    6       1    3  1 -1  N/A   2  0.000000  0.000000
    7       1    3  1  1  N/A   2  0.000000  0.000000
    8       1    3  3  1  N/A   2  0.000000  0.000000
    9       1    4  3 -1  N/A   2  0.000000  0.000000
   10       1    4  1 -1  N/A   2  0.000000  0.000000
   11       1    4  1  1  N/A   2  0.000000  0.000000
   12       1    4  3  1  N/A   2  0.000000  0.000000
   13       2    0  0  0  N/A   1  0.088259  1.200805
   14       2    1  0  0  N/A   1  0.088259  1.200805
   15       2    2  2 -1  N/A   1  0.088259  1.200805
   16       2    2  0  0  N/A   1  0.088259  1.200805
   17       2    2  2  1  N/A   1  0.088259  1.200805
   18       2    3  2 -1  N/A   1  0.088259  1.200805
   19       2    3  0  0  N/A   1  0.088259  1.200805
   20       2    3  2  1  N/A   1  0.088259  1.200805
   21       2    4  4 -1  N/A   1  0.088259  1.200805
   22       2    4  2 -1  N/A   1  0.088259  1.200805
   23       2    4  0  0  N/A   1  0.088259  1.200805
   24       2    4  2  1  N/A   1  0.088259  1.200805
   25       2    4  4  1  N/A   1  0.088259  1.200805

 Dimension of Hamiltonian matrix           NOCSF =       340
 Number of CSFs used to construct R-matrix NSTAT =  340
 Number of eigenvectors to be retained     NPOLE =    0
 Number of multipoles in potential         ISMAX =    2

 READCIP start

 Reading CI coefficients...
 Last pole include at                  340  is   -131.08371970626465       Ryd

 READCIP end

     R-matrix boundary amplitudes 

     At radial distance RMATR -      0.00000000 Bohr radii
     No. of channels     =    25
     No. of eigenvectors =   340
     No. of correction terms =     0


     First 30 R-matrix amplitudes

     Channel =   1     -0.00000015      0.00876582     -0.00213215
                       -0.02883483      0.02968533      0.02443693
                        0.14872442     -0.17803120      0.00848547
                        0.00089934      0.00088837      0.00231169
                        0.00101746     -0.02839292      0.03633230
                       -0.04031677      0.00007744      0.00505464
                        0.00288650      0.03323011     -0.00262512
                       -0.02108151     -0.03401160      0.16948291
                        0.01589132      0.15385160      0.04365999
                       -0.09504495      0.05442806      0.01225300
     Channel =   2      0.00000020      0.00699416      0.01601274
                        0.02096252      0.05111576      0.03673230
                        0.14089238      0.17177715     -0.01500869
                       -0.00382475     -0.00393968      0.00117314
                       -0.00105904     -0.07398432     -0.00443659
                       -0.02052179     -0.00015747      0.00261921
                        0.00121398      0.01720991     -0.00134548
                       -0.00272994     -0.03518130      0.18519665
                       -0.01348324     -0.13852439     -0.02187970
                        0.09080083     -0.04670556     -0.01412363
     Channel =   3     -0.00000077      0.00170897     -0.00024782
                       -0.00387482     -0.05829646      0.12671266
                        0.01014555     -0.00758649      0.06847849
                        0.01569771      0.00533170     -0.02041305
                       -0.01415672      0.06983943     -0.25056817
                       -0.03075776     -0.00076001      0.00308765
                       -0.00015103      0.02045571     -0.00188220
                        0.00634038     -0.01523524      0.03241355
                       -0.02996593      0.00662660      0.01944386
                       -0.02605044     -0.01140443     -0.01518065
     Channel =   4     -0.00000014      0.00148344      0.00339572
                        0.00341941     -0.09043182     -0.05999812
                        0.07195604      0.03465018      0.00772892
                        0.01136534     -0.00120412     -0.01984808
                        0.01729239      0.24328609      0.07793783
                       -0.00583367     -0.00169993      0.00251127
                       -0.00031636      0.00949606     -0.00006103
                        0.00333400     -0.01528803      0.06558253
                       -0.00832935     -0.03575195      0.00886114
                        0.01101885     -0.02826439      0.01460747
     Channel =   5     -0.00000001      0.00022075      0.00055072
                        0.00102828      0.00069055      0.00053577
                        0.00170862      0.00183154      0.00039576
                        0.06348991     -0.21243187      0.05507533
                       -0.06124009      0.00659556     -0.00163843
                        0.01974832     -0.00591710      0.01922965
                        0.00805207      0.01062891     -0.00745518
                       -0.03503466      0.00900448     -0.00648846
                        0.00801233      0.06114145      0.16155665
                        0.15539399      0.00859079     -0.06666167
     Channel =   6     -0.00000008     -0.00006185     -0.00014960
                        0.00002115     -0.00882443      0.01542427
                       -0.00109072      0.00009041      0.00430934
                       -0.12554526     -0.04147421      0.13492265
                        0.14278309      0.01768821     -0.02986435
                        0.00278931      0.01830058      0.01012656
                        0.01514144      0.02599628      0.01449426
                        0.00825550      0.02369726      0.01189778
                        0.00258209      0.05985754     -0.09856479
                        0.12937150      0.09171533      0.14426469
     Channel =   7     -0.00000005     -0.00003816      0.00017877
                        0.00030076     -0.01227636     -0.00758143
                        0.00648913      0.00286897      0.00383900
                       -0.09558099      0.04907889      0.10842811
                       -0.18435028      0.02889953      0.00465007
                        0.00037118      0.01419194     -0.00654899
                        0.01167595      0.00945658     -0.01986165
                        0.00566293     -0.00575449      0.00883990
                       -0.00567695      0.01662695     -0.11734881
                        0.02703230      0.11219978     -0.18784654
     Channel =   8     -0.00000003     -0.00040651      0.00001676
                        0.00088807     -0.00074874     -0.00065714
                       -0.00305486      0.00027740      0.00162933
                       -0.16022429     -0.07990185     -0.15295481
                       -0.02641927     -0.00418277      0.00348805
                        0.00512457      0.01297946      0.01194369
                       -0.01262413      0.03003091     -0.00474703
                        0.00729163     -0.02693888     -0.00646744
                       -0.00732337      0.11433709     -0.09214221
                        0.04474849     -0.18865814     -0.03368905
     Channel =   9      0.00000006      0.00004480      0.00010644
                        0.00014078     -0.00105878     -0.00115669
                        0.00097246      0.00041478     -0.00007933
                        0.00444542     -0.01455874      0.00354151
                       -0.00373157      0.00162293     -0.00013948
                       -0.00094419      0.07761304     -0.24150063
                       -0.09014954      0.04467070      0.09344232
                       -0.01355344      0.00020901     -0.00046260
                        0.00129274      0.00393439      0.01175387
                        0.01089609      0.00024829     -0.00429437
     Channel =  10      0.00000016     -0.00005329     -0.00003529
                        0.00004296      0.00035468      0.00024942
                       -0.00049186     -0.00009699     -0.00039519
                       -0.01277963     -0.00408997      0.01331303
                        0.01337563      0.00066055     -0.00179523
                       -0.00018907     -0.17231332     -0.06415394
                       -0.14354012      0.01356252     -0.16894653
                        0.00084311      0.00877201      0.00179462
                        0.00121238      0.00665583     -0.01088014
                        0.01251591      0.00826143      0.01230962
     Channel =  11      0.00000005     -0.00004498     -0.00003220
                        0.00000692      0.00006401     -0.00073181
                       -0.00008038     -0.00001243      0.00007363
                       -0.00972848      0.00490532      0.01079649
                       -0.01733390      0.00100177      0.00022682
                       -0.00003414     -0.13571483      0.08198068
                       -0.11723686      0.00907210      0.21097962
                       -0.00817675     -0.00449762      0.00011032
                       -0.00045053      0.00197421     -0.01279831
                        0.00276418      0.01122410     -0.01634393
     Channel =  12      0.00000010     -0.00007580     -0.00000518
                        0.00011968      0.00107536     -0.00153004
                       -0.00040908     -0.00004384     -0.00063586
                       -0.01124955     -0.00547808     -0.01000029
                       -0.00161107     -0.00059458      0.00002486
                        0.00120381     -0.16812029     -0.10975117
                        0.20171056      0.01363879      0.04550537
                        0.00977165     -0.00556407     -0.00114816
                       -0.00085458      0.00869880     -0.00681495
                        0.00374963     -0.01293550     -0.00187664
     Channel =  13     -0.00000148      0.00123129     -0.00380502
                        0.00205013      0.00203832     -0.00042268
                        0.00608969     -0.00556957      0.01428382
                       -0.00004827      0.00143959     -0.00004608
                        0.00091604     -0.00252821     -0.00326702
                        0.13972189      0.00011055     -0.00895313
                       -0.00587249     -0.05105259      0.00415149
                        0.04876157     -0.01381984      0.04629833
                       -0.09480749      0.02766055      0.00106313
                       -0.02880594      0.00869906      0.00977993
     Channel =  14     -0.00000704      0.00037777     -0.00152525
                        0.00126748     -0.00331439      0.00650412
                        0.00119633     -0.00284296     -0.03182480
                        0.00110780      0.00046811     -0.00132188
                       -0.00132859      0.00760505     -0.02138113
                        0.05012353      0.00101937     -0.00063872
                       -0.00259675      0.00053025      0.00157099
                        0.05736123     -0.00972285      0.01991049
                        0.22046759     -0.00752238      0.00169102
                       -0.01102785     -0.00990841     -0.01284066
     Channel =  15      0.00000351      0.00029758     -0.00002665
                        0.00066196      0.00080343      0.00059619
                        0.00231165      0.00217685     -0.00005805
                        0.00647993      0.00284470      0.00386510
                        0.00234890     -0.00220328      0.00213339
                        0.02350532      0.00131611      0.01066679
                        0.00210464      0.08039137     -0.00536896
                        0.02565772     -0.09137879     -0.02943396
                       -0.01607102     -0.03161351      0.02588905
                       -0.02261032      0.03805439      0.01906622
     Channel =  16     -0.00000244     -0.00011496     -0.00008004
                        0.00045258     -0.00096836      0.00120182
                       -0.00118775      0.00080514     -0.00949722
                       -0.00398776     -0.00126910      0.00357843
                        0.00359596      0.00307703     -0.00683001
                        0.00043475     -0.00093204     -0.00803250
                       -0.00197806     -0.05928478      0.00023712
                       -0.03915186     -0.11005150     -0.01037371
                        0.05249401      0.01070590     -0.02471204
                        0.02929826      0.01699888      0.02970236
     Channel =  17     -0.00000205     -0.00015669     -0.00009985
                        0.00080738     -0.00052937     -0.00008485
                       -0.00213827      0.00218752     -0.00035647
                        0.00104683     -0.00792668      0.00307030
                       -0.00096368     -0.00042729      0.00223258
                       -0.02620138      0.00064120     -0.00551197
                       -0.00628152     -0.03600444      0.00420581
                        0.10425218     -0.03032122     -0.00335279
                       -0.02312620      0.02943020      0.04229085
                        0.04752615      0.01307990     -0.01367505
     Channel =  18      0.00000042      0.00004515     -0.00001177
                        0.00015988     -0.00133873     -0.00065486
                        0.00093870      0.00045126     -0.00061221
                        0.00080997      0.00046828      0.00000534
                        0.00034752      0.00217617      0.00061288
                        0.00348039      0.00601454      0.00332315
                       -0.00392902      0.00915184     -0.00387689
                        0.00358816     -0.01145127     -0.00313681
                       -0.00061861     -0.00330766      0.00336989
                       -0.00011769      0.00482814      0.00620448
     Channel =  19     -0.00000032     -0.00005010      0.00008393
                        0.00003311      0.00064506     -0.00122008
                       -0.00008606      0.00015769     -0.00107565
                       -0.00060518     -0.00026267      0.00069567
                        0.00068333     -0.00027526      0.00110834
                       -0.00075431     -0.00464747     -0.00289291
                       -0.00405680     -0.00915116     -0.00422366
                       -0.00625235     -0.02083948     -0.00297269
                        0.00125204      0.00172279     -0.00323212
                        0.00582654      0.00668016      0.00698013
     Channel =  20     -0.00000031     -0.00005583      0.00002038
                        0.00007049      0.00069849     -0.00171237
                       -0.00019235      0.00002852     -0.00087289
                        0.00017144     -0.00085289      0.00065335
                        0.00022542     -0.00072013      0.00237428
                       -0.00307952      0.00042604     -0.00770239
                       -0.00459956     -0.00280042      0.00125494
                        0.01451846     -0.00774674     -0.00149577
                       -0.00594451      0.00419776      0.00609646
                        0.00793424      0.00440480     -0.00100541
     Channel =  21     -0.00000021     -0.00000479     -0.00000798
                        0.00002214     -0.00000781     -0.00000951
                       -0.00003750     -0.00001235      0.00005426
                       -0.00224977     -0.00123396     -0.00212836
                       -0.00039802     -0.00007560      0.00010801
                       -0.00051845      0.00011654      0.00019015
                       -0.00019211     -0.00037013     -0.00004072
                        0.00150471     -0.00045029     -0.00007406
                       -0.00060789      0.00101030     -0.00004507
                        0.00074203     -0.00065965     -0.00022313
     Channel =  22     -0.00000010      0.00000053     -0.00000745
                        0.00002064     -0.00016697     -0.00015479
                        0.00009547      0.00002310     -0.00018099
                       -0.00144804      0.00030528      0.00073569
                       -0.00191341      0.00030350      0.00003520
                        0.00010519      0.00053176      0.00019425
                       -0.00007547     -0.00040329     -0.00037031
                       -0.00035072     -0.00116703     -0.00007852
                        0.00035987      0.00024937     -0.00066171
                        0.00052322      0.00042606      0.00023547
     Channel =  23      0.00000000     -0.00000059      0.00001119
                       -0.00000294      0.00008319     -0.00025043
                        0.00003645      0.00002366      0.00008190
                        0.00117521      0.00037079     -0.00124490
                       -0.00124699     -0.00010097      0.00032905
                       -0.00008063     -0.00043283     -0.00018929
                       -0.00035358     -0.00001999     -0.00046174
                       -0.00010301     -0.00085414     -0.00027754
                       -0.00051873     -0.00029318      0.00034625
                       -0.00021986      0.00031137      0.00005376
     Channel =  24      0.00000000     -0.00000194     -0.00000116
                       -0.00000506      0.00017321     -0.00020771
                       -0.00002689     -0.00001662     -0.00003393
                        0.00112359      0.00099793     -0.00148292
                       -0.00133233     -0.00029227      0.00026917
                       -0.00011590      0.00002583     -0.00051777
                       -0.00046161     -0.00006717     -0.00018233
                        0.00027643     -0.00039430     -0.00016527
                       -0.00051785     -0.00022546      0.00042142
                       -0.00027098     -0.00003750     -0.00027255
     Channel =  25     -0.00000013     -0.00000640     -0.00000168
                       -0.00002470     -0.00000266     -0.00001351
                       -0.00001974     -0.00000921      0.00001985
                       -0.00097830      0.00297129     -0.00083988
                        0.00084600     -0.00006906     -0.00001369
                       -0.00051438      0.00015196     -0.00031581
                       -0.00023488     -0.00123593      0.00012689
                       -0.00033691      0.00133972      0.00049066
                       -0.00005368     -0.00003588     -0.00116518
                       -0.00054209     -0.00045233     -0.00001182

 Channel data will be written UNFORMATTED to set number  1 on unit number 10
 Header :e + H2O2 - singlet A                                        20190409  070958.366

 Target state    Spin    M    G/U  Energy (au)
         1         2     1     0 -150.422432
         2         2     0     0 -150.378302

 Residual charge on system = 1

 Channel   Target state  L   M  Threshold (Ryd)
    1            1       1  -1    0.000000
    2            1       1   1    0.000000
    3            1       2  -1    0.000000
    4            1       2   1    0.000000
    5            1       3  -3    0.000000
    6            1       3  -1    0.000000
    7            1       3   1    0.000000
    8            1       3   3    0.000000
    9            1       4  -3    0.000000
   10            1       4  -1    0.000000
   11            1       4   1    0.000000
   12            1       4   3    0.000000
   13            2       0   0    0.088259
   14            2       1   0    0.088259
   15            2       2  -2    0.088259
   16            2       2   0    0.088259
   17            2       2   2    0.088259
   18            2       3  -2    0.088259
   19            2       3   0    0.088259
   20            2       3   2    0.088259
   21            2       4  -4    0.088259
   22            2       4  -2    0.088259
   23            2       4   0    0.088259
   24            2       4   2    0.088259
   25            2       4   4    0.088259

 R-matrix data will be written UNFORMATTED to set number  1 on unit number 21
 Header :e + H2O2 - singlet A                                        20190409  070958.366


 *** Task has been successfully completed ***


 Program RSOLVE  (last modified 05-Jan-2004 )

e + H2O2 - singlet A - K-matrices                           20190409  070958.452

 Symmetry data  MGVN = 0 STOT = 1 GUTOT = 0

 Fixed nuclei calculation for R = 0.000

 Input datasets:                                 Unit  Set numbers
 Target and channel data     LUCHAN (UNFORMATTED) 10       1
 Fixed nuclei R-matrix data  LURMT  (UNFORMATTED) 21       1

 Output datasets:                                Unit  Set number
 K-matrices                  LUKMT  (FORMATTED  ) 19       1

 K-matrices will be calculated for  200 energies in the range [  0.1000, 20.1000] EV 

 *** FIXED NUCLEI DATA ***

 R-matrix data has been read from set number  1 on unit number 21
 Header :e + H2O2 - singlet A                                        20190409  070958.366

 Dimension of Hamiltonian matrix           =       340
 Number of CI vectors stored on file       =    0
 Maximum multipole in asymptotic potential =    2
 R-matrix radius                           =   20.0000

 Maximum multipole USED in asymptotic scattering potentials   ISMAX =  2

 *** FIXED NUCLEI DATA ***

 Target and channel data is read from set  1 on unit 10

 Target state    Spin    M    G/U  Energy (au)
         1         2     1     0 -150.422432
         2         2     0     0 -150.378302

 Channel   Vibronic level   L   M  Threshold (Ryd)
    1              1        1  -1    0.000000
    2              1        1   1    0.000000
    3              1        2  -1    0.000000
    4              1        2   1    0.000000
    5              1        3  -3    0.000000
    6              1        3  -1    0.000000
    7              1        3   1    0.000000
    8              1        3   3    0.000000
    9              1        4  -3    0.000000
   10              1        4  -1    0.000000
   11              1        4   1    0.000000
   12              1        4   3    0.000000
   13              2        0   0    0.088259
   14              2        1   0    0.088259
   15              2        2  -2    0.088259
   16              2        2   0    0.088259
   17              2        2   2    0.088259
   18              2        3  -2    0.088259
   19              2        3   0    0.088259
   20              2        3   2    0.088259
   21              2        4  -4    0.088259
   22              2        4  -2    0.088259
   23              2        4   0    0.088259
   24              2        4   2    0.088259
   25              2        4   4    0.088259

 R-matrix data has been read from set number  1 on unit number 21
 Header :e + H2O2 - singlet A                                        20190409  070958.366

 Dimension of Hamiltonian matrix           =       340
 Number of CI vectors stored on file       =    0
 Maximum multipole in asymptotic potential =    2
 R-matrix radius                           =   20.0000
 IWRON                    0

 ASYMPTOTIC METHOD SELECTED : COULOMB/BESSEL
 EXPANSION USED AT RADIUS =   20.0000

 K-matrices will be written to set  1 on unit 19
Assuming scattering particle is electron.
  1   O      8    -0.000000  1.310903 -0.057709   15.994900
  2   O      8     0.000000 -1.310903 -0.057709   15.994900
  3   H      1     1.436570  1.708123  0.915878    1.007800
  4   H      1    -1.436570 -1.708123  0.915878    1.007800

 Transition moments
                    1
                    2
                    3
                    4
                    5
                    6
                    7
                    8
                    9
                   10
                   11
 COULN : IERR = 1 L =  0 E=  -0.00006 NLAST = 20 EPS =.100D-09 EFX =.100D+01 FNORM =  0.100000000000D+01
 COULN : IERR = 1 L =  1 E=  -0.00006 NLAST = 20 EPS =.100D-09 EFX =.100D+01 FNORM =  0.100000000000D+01
 COULN : IERR = 1 L =  2 E=  -0.00006 NLAST = 20 EPS =.100D-09 EFX =.100D+01 FNORM =  0.100000000000D+01
 COULN : IERR = 1 L =  2 E=  -0.00006 NLAST = 20 EPS =.100D-09 EFX =.100D+01 FNORM =  0.100000000000D+01
 COULN : IERR = 1 L =  2 E=  -0.00006 NLAST = 20 EPS =.100D-09 EFX =.100D+01 FNORM =  0.100000000000D+01
 COULN : IERR = 1 L =  3 E=  -0.00006 NLAST = 20 EPS =.100D-09 EFX =.100D+01 FNORM =  0.100000000000D+01
 COULN : IERR = 1 L =  3 E=  -0.00006 NLAST = 20 EPS =.100D-09 EFX =.100D+01 FNORM =  0.100000000000D+01
 COULN : IERR = 1 L =  3 E=  -0.00006 NLAST = 20 EPS =.100D-09 EFX =.100D+01 FNORM =  0.100000000000D+01
 COULN : IERR = 1 L =  4 E=  -0.00006 NLAST = 20 EPS =.100D-09 EFX =.100D+01 FNORM =  0.100000000000D+01
 COULN : IERR = 1 L =  4 E=  -0.00006 NLAST = 20 EPS =.100D-09 EFX =.100D+01 FNORM =  0.100000000000D+01
 COULN : IERR = 1 L =  4 E=  -0.00006 NLAST = 20 EPS =.100D-09 EFX =.100D+01 FNORM =  0.100000000000D+01
 COULN : IERR = 1 L =  4 E=  -0.00006 NLAST = 20 EPS =.100D-09 EFX =.100D+01 FNORM =  0.100000000000D+01
 COULN : IERR = 1 L =  4 E=  -0.00006 NLAST = 20 EPS =.100D-09 EFX =.100D+01 FNORM =  0.100000000000D+01
                   12
                   13
                   14
                   15
                   16
                   17
                   18
                   19
                   20
                   21
                   22
                   23
                   24
                   25
                   26
                   27
                   28
                   29
                   30
                   31
                   32
                   33
                   34
                   35
                   36
                   37
                   38
                   39
                   40
                   41
                   42
                   43
                   44
                   45
                   46
                   47
                   48
                   49
                   50
                   51
                   52
                   53
                   54
                   55
                   56
                   57
                   58
                   59
                   60
                   61
                   62
                   63
                   64
                   65
                   66
                   67
                   68
                   69
                   70
                   71
                   72
                   73
                   74
                   75
                   76
                   77
                   78
                   79
                   80
                   81
                   82
                   83
                   84
                   85
                   86
                   87
                   88
                   89
                   90
                   91
                   92
                   93
                   94
                   95
                   96
                   97
                   98
                   99
                  100
                  101
                  102
                  103
                  104
                  105
                  106
                  107
                  108
                  109
                  110
                  111
                  112
                  113
                  114
                  115
                  116
                  117
                  118
                  119
                  120
                  121
                  122
                  123
                  124
                  125
                  126
                  127
                  128
                  129
                  130
                  131
                  132
                  133
                  134
                  135
                  136
                  137
                  138
                  139
                  140
                  141
                  142
                  143
                  144
                  145
                  146
                  147
                  148
                  149
                  150
                  151
                  152
                  153
                  154
                  155
                  156
                  157
                  158
                  159
                  160
                  161
                  162
                  163
                  164
                  165
                  166
                  167
                  168
                  169
                  170
                  171
                  172
                  173
                  174
                  175
                  176
                  177
                  178
                  179
                  180
                  181
                  182
                  183
                  184
                  185
                  186
                  187
                  188
                  189
                  190
                  191
                  192
                  193
                  194
                  195
                  196
                  197
                  198
                  199
                  200

Number of energy points for which the K matrices have     actually been calculated:      0

 *** Task successfully completed ***
